<?xml version="1.0" encoding="UTF-8" standalone="no"?>
<svg
   xmlns:dc="http://purl.org/dc/elements/1.1/"
   xmlns:cc="http://creativecommons.org/ns#"
   xmlns:rdf="http://www.w3.org/1999/02/22-rdf-syntax-ns#"
   xmlns:svg="http://www.w3.org/2000/svg"
   xmlns="http://www.w3.org/2000/svg"
   xmlns:sodipodi="http://sodipodi.sourceforge.net/DTD/sodipodi-0.dtd"
   xmlns:inkscape="http://www.inkscape.org/namespaces/inkscape"
   width="32.49279"
   height="31.698547"
   viewBox="0 0 32.492791 31.698547"
   version="1.1"
   id="svg3"
   sodipodi:docname="arrow-fff-000.svg"
   inkscape:version="0.92.3 (2405546, 2018-03-11)">
  <metadata
     id="metadata9">
    <rdf:RDF>
      <cc:Work
         rdf:about="">
        <dc:format>image/svg+xml</dc:format>
        <dc:type
           rdf:resource="http://purl.org/dc/dcmitype/StillImage" />
        <dc:title />
      </cc:Work>
    </rdf:RDF>
  </metadata>
  <defs
     id="defs7" />
  <sodipodi:namedview
     pagecolor="#ffffff"
     bordercolor="#666666"
     borderopacity="1"
     objecttolerance="10"
     gridtolerance="10"
     guidetolerance="10"
     inkscape:pageopacity="0"
     inkscape:pageshadow="2"
     inkscape:window-width="2404"
     inkscape:window-height="1044"
     id="namedview5"
     showgrid="false"
     fit-margin-top="0"
     fit-margin-left="0"
     fit-margin-right="0"
     fit-margin-bottom="0"
     inkscape:zoom="9.298696"
     inkscape:cx="0.82606486"
     inkscape:cy="14.963786"
     inkscape:window-x="0"
     inkscape:window-y="0"
     inkscape:window-maximized="0"
     inkscape:current-layer="svg3" />
  <path
     inkscape:connector-curvature="0"
     style="fill:#ffffff;stroke:#000000;stroke-opacity:1;fill-rule:nonzero;fill-opacity:1"
     id="Icon_awesome-arrow-right-3"
     data-name="Icon awesome-arrow-right"
     d="m 18.603251,2.5492737 -1.561,-1.55700002 a 1.681,1.681 0 0 0 -2.384,0 L 0.99425127,14.649274 a 1.681,1.681 0 0 0 0,2.384 l 13.66399973,13.673 a 1.681,1.681 0 0 0 2.384,0 l 1.561,-1.557 a 1.689,1.689 0 0 0 -0.028,-2.412 l -8.472999,-8.076 h 20.207999 a 1.683,1.683 0 0 0 1.684,-1.687 v -2.25 a 1.683,1.683 0 0 0 -1.687,-1.687 H 10.102252 l 8.472999,-8.0720003 a 1.677,1.677 0 0 0 0.028,-2.416 z" />
</svg>
