<svg xmlns="http://www.w3.org/2000/svg" width="30" height="30" viewBox="0 0 30 30">
  <g id="Icon_feather-download" data-name="Icon feather-download" transform="translate(-3 -3)">
    <path id="Tracé_9" data-name="Tracé 9" d="M31.5,22.5v6a3,3,0,0,1-3,3H7.5a3,3,0,0,1-3-3v-6" fill="none" stroke="#FFFFFF" stroke-linecap="round" stroke-linejoin="round" stroke-width="3"/>
    <path id="Tracé_10" data-name="Tracé 10" d="M10.5,15,18,22.5,25.5,15" fill="none" stroke="#FFFFFF" stroke-linecap="round" stroke-linejoin="round" stroke-width="3"/>
    <path id="Tracé_11" data-name="Tracé 11" d="M18,22.5V4.5" fill="none" stroke="#FFFFFF" stroke-linecap="round" stroke-linejoin="round" stroke-width="3"/>
  </g>
</svg>
