<svg width="26" height="26" viewBox="0 0 26 26" fill="none" xmlns="http://www.w3.org/2000/svg">
<g clip-path="url(#clip0_504_342)">
<path d="M6.65029 7.93108L11.7706 13.0514L6.65017 18.1719C6.29694 18.5251 6.29694 19.0987 6.65029 19.452C7.00352 19.8053 7.57708 19.8053 7.93031 19.452L13.0508 14.3316L18.1712 19.452C18.5245 19.8053 19.098 19.8053 19.4513 19.452C19.8046 19.0987 19.8046 18.5251 19.4514 18.1719L14.3309 13.0514L19.4513 7.93108C19.8046 7.57773 19.8046 7.00417 19.4514 6.65093C19.098 6.29758 18.5245 6.29758 18.1711 6.65093L13.0508 11.7713L7.93043 6.65093C7.57708 6.29758 7.00352 6.29758 6.65017 6.65093C6.29694 7.00417 6.29694 7.57773 6.65029 7.93108Z" fill="#222222"/>
</g>
<defs>
<clipPath id="clip0_504_342">
<rect width="18.1034" height="18.1034" fill="white" transform="translate(13.0508 25.8525) rotate(-135)"/>
</clipPath>
</defs>
</svg>
