<svg width="17" height="16" viewBox="0 0 17 16" fill="none" xmlns="http://www.w3.org/2000/svg">
<path fill-rule="evenodd" clip-rule="evenodd" d="M6.65685 15.0709L0.292893 8.70692C-0.097631 8.31639 -0.0976311 7.68323 0.292893 7.2927L6.65685 0.928742C7.04738 0.538218 7.68054 0.538218 8.07107 0.928742C8.46159 1.31927 8.46159 1.95243 8.07107 2.34296L3.41421 6.99981L16 6.99981C16.5523 6.99981 17 7.44752 17 7.99981C17 8.55209 16.5523 8.99981 16 8.99981L3.41421 8.99981L8.07107 13.6567C8.46159 14.0472 8.46159 14.6804 8.07107 15.0709C7.68054 15.4614 7.04738 15.4614 6.65685 15.0709Z" fill="white"/>
</svg>
