<svg xmlns="http://www.w3.org/2000/svg" width="13.503" height="23.622" viewBox="0 0 13.503 23.622">
  <path id="Icon_ionic-ios-arrow-down" data-name="Icon ionic-ios-arrow-down" d="M18,15.317l8.93,8.937a1.681,1.681,0,0,0,2.384,0,1.7,1.7,0,0,0,0-2.391L19.2,11.738a1.685,1.685,0,0,0-2.327-.049L6.68,21.856a1.688,1.688,0,0,0,2.384,2.391Z" transform="translate(24.75 -6.184) rotate(90)" fill="#333"/>
</svg>
