<svg width="23" height="22" viewBox="0 0 23 22" fill="none" xmlns="http://www.w3.org/2000/svg">
<path d="M21.168 1.33203H12.1445V0H10.8555V1.33203H1.83203V20.668H10.8555V22H12.1445V20.668H21.168V1.33203ZM19.8789 19.3789H12.1445V18.0898H10.8555V19.3789H3.12109V2.62109H10.8555V3.91016H12.1445V2.62109H19.8789V19.3789Z" fill="white"/>
<path d="M10.8555 5.19922H12.1445V7.77734H10.8555V5.19922Z" fill="white"/>
<path d="M10.8555 14.2227H12.1445V16.8008H10.8555V14.2227Z" fill="white"/>
<path d="M10.8555 9.06641H12.1445V12.9336H10.8555V9.06641Z" fill="white"/>
</svg>
