<svg xmlns="http://www.w3.org/2000/svg" width="26.176" height="33.821" viewBox="0 0 26.176 33.821">
  <path id="location-dot-solid_1_" data-name="location-dot-solid (1)" d="M13.018,30.128c3.1-3.875,10.157-13.266,10.157-18.54A11.588,11.588,0,0,0,0,11.588c0,5.275,7.061,14.666,10.157,18.54a1.823,1.823,0,0,0,2.861,0Zm-1.43-22.4a3.863,3.863,0,1,1-3.863,3.863A3.863,3.863,0,0,1,11.588,7.725Z" transform="translate(1.5 1.5)" fill="none" stroke="#fff" stroke-width="3"/>
</svg>
