<svg xmlns="http://www.w3.org/2000/svg" width="30.901" height="30.901" viewBox="0 0 30.901 30.901">
  <path id="clock-regular" d="M28,15.45A12.553,12.553,0,1,1,15.45,2.9,12.553,12.553,0,0,1,28,15.45Zm-28,0A15.45,15.45,0,1,0,15.45,0,15.45,15.45,0,0,0,0,15.45ZM14,7.242V15.45a1.455,1.455,0,0,0,.646,1.207l5.794,3.863a1.45,1.45,0,1,0,1.605-2.414L16.9,14.678V7.242a1.448,1.448,0,1,0-2.9,0Z" fill="#fff"/>
</svg>
