<svg width="20" height="20" viewBox="0 0 20 20" fill="none" xmlns="http://www.w3.org/2000/svg">
<g clip-path="url(#clip0_1393_862)">
<path d="M18.0759 14.9121C17.9197 14.9139 17.9369 14.9063 17.7293 14.9209V10.0646C17.7293 9.54485 17.3064 9.122 16.7867 9.122H14.407C14.4057 9.122 14.4045 9.1218 14.4032 9.1218H11.6629V1.80598L13.9104 3.97844C14.0374 4.10126 14.1103 4.27298 14.1103 4.44966V8.0338C14.1103 8.19559 14.2414 8.32677 14.4032 8.32677C14.565 8.32677 14.6962 8.19559 14.6962 8.0338V4.44966C14.6962 4.11505 14.5582 3.78973 14.3176 3.55716L11.5736 0.904695C11.5119 0.846804 11.3937 0.794851 11.2766 0.837624L6.35391 2.49231V1.35169C6.35762 0.853288 5.91043 0.419499 5.39024 0.449734C4.8927 0.449734 4.48789 0.854343 4.48789 1.35169V3.11954L3.19996 3.55247C2.69406 3.72255 2.35414 4.19536 2.35414 4.72911V14.9137C1.05043 14.9471 0 16.0172 0 17.3288V18.8186C0 19.2231 0.329023 19.552 0.733438 19.552H19.2665C19.671 19.552 20 19.223 20 18.8186V16.8362C20 15.7752 19.1368 14.9121 18.0759 14.9121ZM18.0759 15.498C18.8138 15.498 19.4141 16.0983 19.4141 16.8362V17.1436H16.5723V16.8362C16.5729 16.0354 17.2766 15.4286 18.0759 15.498ZM17.1434 10.0646V15.072C16.4631 15.369 15.9863 16.0478 15.9863 16.8362V17.1435H11.6629V9.70794H16.7867C16.9834 9.70794 17.1434 9.86794 17.1434 10.0646ZM5.07383 1.35169C5.07383 1.17743 5.21578 1.03567 5.39024 1.03567C5.54691 1.01266 5.75789 1.13551 5.76797 1.35169V2.68927L5.07383 2.92259V1.35169ZM2.35418 15.4991V17.1436H0.595234C0.686367 16.2411 1.43555 15.5301 2.35418 15.4991ZM0.585938 18.8186V17.7295H2.35418V18.9661H0.733477C0.652109 18.9661 0.585938 18.9 0.585938 18.8186ZM2.94012 4.72911C2.94012 4.44731 3.11957 4.1977 3.38668 4.1079L11.077 1.5229V3.11919L4.6875 5.26696C4.53414 5.31848 4.4516 5.48462 4.50316 5.63802C4.5443 5.76044 4.65844 5.8377 4.78082 5.8377C4.81176 5.8377 4.84324 5.83278 4.87422 5.82235L11.077 3.73739V5.22782L4.6875 7.37555C4.53414 7.42712 4.4516 7.59325 4.50316 7.74661C4.5443 7.86903 4.65844 7.9463 4.78082 7.9463C4.81176 7.9463 4.84324 7.94137 4.87422 7.93094L11.077 5.84594V7.33637L4.6875 9.48415C4.53414 9.53567 4.4516 9.7018 4.50316 9.8552C4.5443 9.97762 4.65844 10.0549 4.78082 10.0549C4.81176 10.0549 4.84324 10.05 4.87422 10.0395L11.077 7.95458V9.41387C11.077 9.41427 11.077 9.41462 11.077 9.41501V9.44505L4.6875 11.5927C4.53414 11.6443 4.4516 11.8104 4.50316 11.9638C4.5443 12.0862 4.65844 12.1635 4.78082 12.1635C4.81176 12.1635 4.84324 12.1586 4.87422 12.1481L11.077 10.0631V11.5536L7.08723 12.8947C6.93387 12.9462 6.85133 13.1124 6.90289 13.2657C6.94402 13.3882 7.05816 13.4654 7.18055 13.4654C7.21149 13.4654 7.24297 13.4605 7.27395 13.4501L11.077 12.1717V18.9661H8.54602V15.9218C8.54602 15.7223 8.45484 15.5386 8.2959 15.418C8.13695 15.2974 7.93555 15.259 7.74336 15.3126L5.01652 16.0739C4.70531 16.1607 4.48797 16.4471 4.48797 16.7702V18.9661H2.94012V4.72911ZM5.07391 16.7702C5.07391 16.709 5.11512 16.6547 5.17406 16.6382L6.22398 16.3451V18.9661H5.07387L5.07391 16.7702ZM6.80992 18.9661V16.1815L7.9009 15.877C7.91563 15.8728 7.92938 15.8754 7.9416 15.8847C7.95383 15.894 7.96004 15.9065 7.96004 15.9219V18.9661H6.80992ZM11.6629 18.9661V17.7295H15.9863V18.9661H11.6629ZM19.4141 18.8186C19.4141 18.9 19.3479 18.9661 19.2666 18.9661H16.5723V17.7295H19.4141V18.8186Z" fill="#222222"/>
<path d="M4.78129 14.2721C4.81223 14.2721 4.84371 14.2671 4.87469 14.2567L5.96242 13.8911C6.11578 13.8396 6.19832 13.6734 6.14676 13.52C6.0952 13.3666 5.92906 13.2841 5.7757 13.3357L4.68797 13.7013C4.53461 13.7528 4.45207 13.919 4.50363 14.0724C4.54477 14.1948 4.65891 14.2721 4.78129 14.2721Z" fill="#222222"/>
<path d="M12.9472 12.1245H15.8203C16.0927 12.1245 16.3144 11.9029 16.3144 11.6304V10.9253C16.3144 10.6528 16.0927 10.4312 15.8203 10.4312H12.9472C12.6747 10.4312 12.4531 10.6528 12.4531 10.9253V11.6304C12.4531 11.9029 12.6748 12.1245 12.9472 12.1245ZM13.0391 11.0171H15.7284V11.5386H13.0391V11.0171Z" fill="#222222"/>
<path d="M12.9472 14.3521H15.8203C16.0927 14.3521 16.3144 14.1304 16.3144 13.8579V13.1528C16.3144 12.8803 16.0927 12.6587 15.8203 12.6587H12.9472C12.6747 12.6587 12.4531 12.8803 12.4531 13.1528V13.8579C12.4531 14.1304 12.6748 14.3521 12.9472 14.3521ZM13.0391 13.2446H15.7284V13.7661H13.0391V13.2446Z" fill="#222222"/>
<path d="M12.9472 16.6025H13.8975C14.17 16.6025 14.3916 16.3809 14.3916 16.1085V15.4033C14.3916 15.1308 14.17 14.9092 13.8975 14.9092H12.9472C12.6747 14.9092 12.4531 15.1308 12.4531 15.4033V16.1085C12.4531 16.3809 12.6748 16.6025 12.9472 16.6025ZM13.0391 15.4951H13.8057V16.0166H13.0391V15.4951Z" fill="#222222"/>
</g>
<defs>
<clipPath id="clip0_1393_862">
<rect width="20" height="20" fill="white"/>
</clipPath>
</defs>
</svg>
