<?xml version="1.0" encoding="UTF-8"?>
<svg width="162px" height="162px" viewBox="0 0 162 162" version="1.1" xmlns="http://www.w3.org/2000/svg" xmlns:xlink="http://www.w3.org/1999/xlink">
    <!-- Generator: Sketch 56.2 (81672) - https://sketch.com -->
    <title>Documents list@x2</title>
    <desc>Created with Sketch.</desc>
    <g id="DocumentSVG" stroke="none" stroke-width="1" fill="none" fill-rule="evenodd">
        <g id="DP-82_02" transform="translate(-927.000000, -2216.000000)">
            <g id="Documents-collection" transform="translate(927.000000, 2216.000000)">
                <rect id="Rectangle" stroke="#D1D1D1" stroke-width="1" fill="#FFFFFF" fill-rule="evenodd" x="0.5" y="0.5" width="161" height="161"></rect>
                <g id="Content-collection" stroke-width="1" fill-rule="evenodd" transform="translate(40.000000, 52.000000)">
                    <g id="+" transform="translate(31.000000, 75.000000)">
                        <rect id="Rectangle-3" fill="#5FC9E1" x="0" y="0" width="19" height="19" rx="5"></rect>
                        <path d="M6.5,9.5 L12.6363636,9.5" id="Line-4" stroke="#FFFFFF" stroke-linecap="round" stroke-linejoin="round"></path>
                        <path d="M9.5,6.36363636 L9.5,12.5" id="Line-5" stroke="#FFFFFF" stroke-linecap="round" stroke-linejoin="round"></path>
                    </g>
                    <g id="List">
                        <g id="noun_586552_cc" transform="translate(53.000000, 15.000000)"></g>
                        <rect id="Rectangle-9" fill="#D1D1D1" opacity="0.401897321" x="0" y="0" width="34" height="4" rx="2"></rect>
                        <rect id="Rectangle-9" fill="#D1D1D1" opacity="0.401897321" x="0" y="7" width="24" height="4" rx="2"></rect>
                    </g>
                    <g id="List" transform="translate(68.000000, 0.000000)" fill="#D1D1D1" opacity="0.401897321">
                        <rect id="Rectangle-9" x="0" y="0" width="34" height="4" rx="2"></rect>
                        <rect id="Rectangle-9" x="0" y="7" width="24" height="4" rx="2"></rect>
                    </g>
                    <g id="List" transform="translate(0.000000, 27.000000)" fill="#D1D1D1" opacity="0.401897321">
                        <rect id="Rectangle-9" x="0" y="0" width="34" height="4" rx="2"></rect>
                        <rect id="Rectangle-9" x="0" y="7" width="24" height="4" rx="2"></rect>
                    </g>
                    <g id="List" transform="translate(68.000000, 27.000000)" fill="#D1D1D1" opacity="0.401897321">
                        <rect id="Rectangle-9" x="0" y="0" width="34" height="4" rx="2"></rect>
                        <rect id="Rectangle-9" x="0" y="7" width="24" height="4" rx="2"></rect>
                    </g>
                </g>
                <g id="PDF" transform="translate(17.000000, 49.000000)" fill="#5FC9E1" fill-rule="nonzero">
                    <path d="M9.58522502,11.2616446 L9.58522502,12.4194825 L9.84924823,12.4194825 C10.2702231,12.4194825 10.3316389,12.0499597 10.3316389,11.8273663 C10.3316389,11.6774457 10.2885828,11.2616446 9.80018053,11.2616446 L9.58522502,11.2616446 Z" id="Shape"></path>
                    <path d="M7.42267182,11.2616446 L7.42267182,11.7441357 L7.68360799,11.7441357 C7.85875693,11.7441357 8.04300451,11.7307625 8.04300451,11.4911006 C8.04300451,11.2748419 7.88946486,11.2614687 7.72357705,11.2614687 L7.42267182,11.2614687 L7.42267182,11.2616446 Z" id="Shape"></path>
                    <path d="M12.8807221,9.32921679 L12.6407453,9.32921679 L12.6407453,4.66883151 L8.78909349,0.0063346751 L2.21792134,0.0063346751 C1.08985171,0.0063346751 0.17202579,1.00017481 0.17202579,2.22206325 L0.17202579,14.6704037 C0.17202579,15.8921162 1.08968923,16.8861323 2.21792134,16.8861323 L10.5950123,16.8861323 C11.7230819,16.8861323 12.6409078,15.8922921 12.6409078,14.6704037 L12.6409078,14.1345957 L12.8807221,14.1345957 C13.446138,14.1345957 13.9044823,13.6380276 13.9044823,13.0256757 L13.9044823,10.4379609 C13.9044823,9.82560897 13.4463005,9.32921679 12.8807221,9.32921679 Z M9.0584784,1.91606325 L11.0632676,4.34259574 L9.0584784,4.34259574 L9.0584784,1.91606325 Z M11.6660529,14.6704037 C11.6660529,15.3100299 11.1856119,15.8303531 10.5950123,15.8303531 L2.21792134,15.8303531 C1.62732173,15.8303531 1.14688072,15.3100299 1.14688072,14.6704037 L1.14688072,2.22206325 C1.14688072,1.58243703 1.62732173,1.06211386 2.21792134,1.06211386 L8.08362347,1.06211386 L8.08362347,5.39837493 L11.6660529,5.39837493 L11.6660529,9.32921679 L6.56626177,9.32921679 C6.00084591,9.32921679 5.54233914,9.82560897 5.54233914,10.4381369 L5.54233914,13.0258516 C5.54233914,13.6380276 6.00068343,14.1347717 6.56626177,14.1347717 L11.6660529,14.1347717 L11.6660529,14.6704037 Z M11.0073759,11.8372202 C11.0073759,12.5658838 10.6510664,13.0281392 9.88629271,13.0281392 L8.9093256,13.0281392 L8.9093256,10.6529879 L10.0182231,10.6529879 C10.7493643,10.6529879 11.0073759,11.2385934 11.0073759,11.8372202 Z M8.68202192,11.4647062 C8.68202192,12.0401058 8.32571244,12.3095055 7.82187492,12.3095055 L7.42267182,12.3095055 L7.42267182,13.0281392 L6.7467724,13.0281392 L6.7467724,10.6529879 L7.87727917,10.6529879 C8.47307801,10.6529879 8.68202192,11.1252731 8.68202192,11.4647062 Z M12.9949426,11.2616446 L11.9752444,11.2616446 L11.9752444,11.5579666 L12.8506641,11.5579666 L12.8506641,12.1233364 L11.9752444,12.1233364 L11.9752444,13.0283151 L11.2993449,13.0283151 L11.2993449,10.6529879 L12.9951051,10.6529879 L12.9951051,11.2616446 L12.9949426,11.2616446 Z" id="Shape"></path>
                </g>
                <g id="PDF" transform="translate(88.000000, 49.000000)" fill="#5FC9E1" fill-rule="nonzero">
                    <path d="M9.58522502,11.2616446 L9.58522502,12.4194825 L9.84924823,12.4194825 C10.2702231,12.4194825 10.3316389,12.0499597 10.3316389,11.8273663 C10.3316389,11.6774457 10.2885828,11.2616446 9.80018053,11.2616446 L9.58522502,11.2616446 Z" id="Shape"></path>
                    <path d="M7.42267182,11.2616446 L7.42267182,11.7441357 L7.68360799,11.7441357 C7.85875693,11.7441357 8.04300451,11.7307625 8.04300451,11.4911006 C8.04300451,11.2748419 7.88946486,11.2614687 7.72357705,11.2614687 L7.42267182,11.2614687 L7.42267182,11.2616446 Z" id="Shape"></path>
                    <path d="M12.8807221,9.32921679 L12.6407453,9.32921679 L12.6407453,4.66883151 L8.78909349,0.0063346751 L2.21792134,0.0063346751 C1.08985171,0.0063346751 0.17202579,1.00017481 0.17202579,2.22206325 L0.17202579,14.6704037 C0.17202579,15.8921162 1.08968923,16.8861323 2.21792134,16.8861323 L10.5950123,16.8861323 C11.7230819,16.8861323 12.6409078,15.8922921 12.6409078,14.6704037 L12.6409078,14.1345957 L12.8807221,14.1345957 C13.446138,14.1345957 13.9044823,13.6380276 13.9044823,13.0256757 L13.9044823,10.4379609 C13.9044823,9.82560897 13.4463005,9.32921679 12.8807221,9.32921679 Z M9.0584784,1.91606325 L11.0632676,4.34259574 L9.0584784,4.34259574 L9.0584784,1.91606325 Z M11.6660529,14.6704037 C11.6660529,15.3100299 11.1856119,15.8303531 10.5950123,15.8303531 L2.21792134,15.8303531 C1.62732173,15.8303531 1.14688072,15.3100299 1.14688072,14.6704037 L1.14688072,2.22206325 C1.14688072,1.58243703 1.62732173,1.06211386 2.21792134,1.06211386 L8.08362347,1.06211386 L8.08362347,5.39837493 L11.6660529,5.39837493 L11.6660529,9.32921679 L6.56626177,9.32921679 C6.00084591,9.32921679 5.54233914,9.82560897 5.54233914,10.4381369 L5.54233914,13.0258516 C5.54233914,13.6380276 6.00068343,14.1347717 6.56626177,14.1347717 L11.6660529,14.1347717 L11.6660529,14.6704037 Z M11.0073759,11.8372202 C11.0073759,12.5658838 10.6510664,13.0281392 9.88629271,13.0281392 L8.9093256,13.0281392 L8.9093256,10.6529879 L10.0182231,10.6529879 C10.7493643,10.6529879 11.0073759,11.2385934 11.0073759,11.8372202 Z M8.68202192,11.4647062 C8.68202192,12.0401058 8.32571244,12.3095055 7.82187492,12.3095055 L7.42267182,12.3095055 L7.42267182,13.0281392 L6.7467724,13.0281392 L6.7467724,10.6529879 L7.87727917,10.6529879 C8.47307801,10.6529879 8.68202192,11.1252731 8.68202192,11.4647062 Z M12.9949426,11.2616446 L11.9752444,11.2616446 L11.9752444,11.5579666 L12.8506641,11.5579666 L12.8506641,12.1233364 L11.9752444,12.1233364 L11.9752444,13.0283151 L11.2993449,13.0283151 L11.2993449,10.6529879 L12.9951051,10.6529879 L12.9951051,11.2616446 L12.9949426,11.2616446 Z" id="Shape"></path>
                </g>
                <g id="PDF" transform="translate(88.000000, 75.000000)" fill="#5FC9E1" fill-rule="nonzero">
                    <path d="M9.58522502,11.2616446 L9.58522502,12.4194825 L9.84924823,12.4194825 C10.2702231,12.4194825 10.3316389,12.0499597 10.3316389,11.8273663 C10.3316389,11.6774457 10.2885828,11.2616446 9.80018053,11.2616446 L9.58522502,11.2616446 Z" id="Shape"></path>
                    <path d="M7.42267182,11.2616446 L7.42267182,11.7441357 L7.68360799,11.7441357 C7.85875693,11.7441357 8.04300451,11.7307625 8.04300451,11.4911006 C8.04300451,11.2748419 7.88946486,11.2614687 7.72357705,11.2614687 L7.42267182,11.2614687 L7.42267182,11.2616446 Z" id="Shape"></path>
                    <path d="M12.8807221,9.32921679 L12.6407453,9.32921679 L12.6407453,4.66883151 L8.78909349,0.0063346751 L2.21792134,0.0063346751 C1.08985171,0.0063346751 0.17202579,1.00017481 0.17202579,2.22206325 L0.17202579,14.6704037 C0.17202579,15.8921162 1.08968923,16.8861323 2.21792134,16.8861323 L10.5950123,16.8861323 C11.7230819,16.8861323 12.6409078,15.8922921 12.6409078,14.6704037 L12.6409078,14.1345957 L12.8807221,14.1345957 C13.446138,14.1345957 13.9044823,13.6380276 13.9044823,13.0256757 L13.9044823,10.4379609 C13.9044823,9.82560897 13.4463005,9.32921679 12.8807221,9.32921679 Z M9.0584784,1.91606325 L11.0632676,4.34259574 L9.0584784,4.34259574 L9.0584784,1.91606325 Z M11.6660529,14.6704037 C11.6660529,15.3100299 11.1856119,15.8303531 10.5950123,15.8303531 L2.21792134,15.8303531 C1.62732173,15.8303531 1.14688072,15.3100299 1.14688072,14.6704037 L1.14688072,2.22206325 C1.14688072,1.58243703 1.62732173,1.06211386 2.21792134,1.06211386 L8.08362347,1.06211386 L8.08362347,5.39837493 L11.6660529,5.39837493 L11.6660529,9.32921679 L6.56626177,9.32921679 C6.00084591,9.32921679 5.54233914,9.82560897 5.54233914,10.4381369 L5.54233914,13.0258516 C5.54233914,13.6380276 6.00068343,14.1347717 6.56626177,14.1347717 L11.6660529,14.1347717 L11.6660529,14.6704037 Z M11.0073759,11.8372202 C11.0073759,12.5658838 10.6510664,13.0281392 9.88629271,13.0281392 L8.9093256,13.0281392 L8.9093256,10.6529879 L10.0182231,10.6529879 C10.7493643,10.6529879 11.0073759,11.2385934 11.0073759,11.8372202 Z M8.68202192,11.4647062 C8.68202192,12.0401058 8.32571244,12.3095055 7.82187492,12.3095055 L7.42267182,12.3095055 L7.42267182,13.0281392 L6.7467724,13.0281392 L6.7467724,10.6529879 L7.87727917,10.6529879 C8.47307801,10.6529879 8.68202192,11.1252731 8.68202192,11.4647062 Z M12.9949426,11.2616446 L11.9752444,11.2616446 L11.9752444,11.5579666 L12.8506641,11.5579666 L12.8506641,12.1233364 L11.9752444,12.1233364 L11.9752444,13.0283151 L11.2993449,13.0283151 L11.2993449,10.6529879 L12.9951051,10.6529879 L12.9951051,11.2616446 L12.9949426,11.2616446 Z" id="Shape"></path>
                </g>
                <g id="PDF" transform="translate(17.000000, 75.000000)" fill="#5FC9E1" fill-rule="nonzero">
                    <path d="M9.58522502,11.2616446 L9.58522502,12.4194825 L9.84924823,12.4194825 C10.2702231,12.4194825 10.3316389,12.0499597 10.3316389,11.8273663 C10.3316389,11.6774457 10.2885828,11.2616446 9.80018053,11.2616446 L9.58522502,11.2616446 Z" id="Shape"></path>
                    <path d="M7.42267182,11.2616446 L7.42267182,11.7441357 L7.68360799,11.7441357 C7.85875693,11.7441357 8.04300451,11.7307625 8.04300451,11.4911006 C8.04300451,11.2748419 7.88946486,11.2614687 7.72357705,11.2614687 L7.42267182,11.2614687 L7.42267182,11.2616446 Z" id="Shape"></path>
                    <path d="M12.8807221,9.32921679 L12.6407453,9.32921679 L12.6407453,4.66883151 L8.78909349,0.0063346751 L2.21792134,0.0063346751 C1.08985171,0.0063346751 0.17202579,1.00017481 0.17202579,2.22206325 L0.17202579,14.6704037 C0.17202579,15.8921162 1.08968923,16.8861323 2.21792134,16.8861323 L10.5950123,16.8861323 C11.7230819,16.8861323 12.6409078,15.8922921 12.6409078,14.6704037 L12.6409078,14.1345957 L12.8807221,14.1345957 C13.446138,14.1345957 13.9044823,13.6380276 13.9044823,13.0256757 L13.9044823,10.4379609 C13.9044823,9.82560897 13.4463005,9.32921679 12.8807221,9.32921679 Z M9.0584784,1.91606325 L11.0632676,4.34259574 L9.0584784,4.34259574 L9.0584784,1.91606325 Z M11.6660529,14.6704037 C11.6660529,15.3100299 11.1856119,15.8303531 10.5950123,15.8303531 L2.21792134,15.8303531 C1.62732173,15.8303531 1.14688072,15.3100299 1.14688072,14.6704037 L1.14688072,2.22206325 C1.14688072,1.58243703 1.62732173,1.06211386 2.21792134,1.06211386 L8.08362347,1.06211386 L8.08362347,5.39837493 L11.6660529,5.39837493 L11.6660529,9.32921679 L6.56626177,9.32921679 C6.00084591,9.32921679 5.54233914,9.82560897 5.54233914,10.4381369 L5.54233914,13.0258516 C5.54233914,13.6380276 6.00068343,14.1347717 6.56626177,14.1347717 L11.6660529,14.1347717 L11.6660529,14.6704037 Z M11.0073759,11.8372202 C11.0073759,12.5658838 10.6510664,13.0281392 9.88629271,13.0281392 L8.9093256,13.0281392 L8.9093256,10.6529879 L10.0182231,10.6529879 C10.7493643,10.6529879 11.0073759,11.2385934 11.0073759,11.8372202 Z M8.68202192,11.4647062 C8.68202192,12.0401058 8.32571244,12.3095055 7.82187492,12.3095055 L7.42267182,12.3095055 L7.42267182,13.0281392 L6.7467724,13.0281392 L6.7467724,10.6529879 L7.87727917,10.6529879 C8.47307801,10.6529879 8.68202192,11.1252731 8.68202192,11.4647062 Z M12.9949426,11.2616446 L11.9752444,11.2616446 L11.9752444,11.5579666 L12.8506641,11.5579666 L12.8506641,12.1233364 L11.9752444,12.1233364 L11.9752444,13.0283151 L11.2993449,13.0283151 L11.2993449,10.6529879 L12.9951051,10.6529879 L12.9951051,11.2616446 L12.9949426,11.2616446 Z" id="Shape"></path>
                </g>
            </g>
        </g>
    </g>
</svg>