<?xml version="1.0" encoding="UTF-8"?>
<svg width="162px" height="162px" viewBox="0 0 162 162" version="1.1" xmlns="http://www.w3.org/2000/svg" xmlns:xlink="http://www.w3.org/1999/xlink">
    <!-- Generator: Sketch 50.2 (55047) - http://www.bohemiancoding.com/sketch -->
    <title>Embed@2x</title>
    <desc>Created with Sketch.</desc>
    <defs></defs>
    <g id="Page-1" stroke="none" stroke-width="1" fill="none" fill-rule="evenodd">
        <g id="DP-82_02" transform="translate(-542.000000, -630.000000)">
            <g id="Embed" transform="translate(542.000000, 630.000000)">
                <g transform="translate(0.000000, -22.000000)">
                    <rect id="Rectangle" stroke="#D1D1D1" fill="#FFFFFF" x="0.5" y="22.5" width="161" height="161"></rect>
                    <g id="+" transform="translate(71.000000, 149.000000)">
                        <rect id="Rectangle-3" fill="#5FC9E1" x="0" y="0" width="19" height="19" rx="5"></rect>
                        <path d="M6.5,9.5 L12.6363636,9.5" id="Line-4" stroke="#FFFFFF" stroke-linecap="round" stroke-linejoin="round"></path>
                        <path d="M9.5,6.36363636 L9.5,12.5" id="Line-5" stroke="#FFFFFF" stroke-linecap="round" stroke-linejoin="round"></path>
                    </g>
                    <rect id="Rectangle-5" stroke="#5FC9E1" x="26.5" y="59.5" width="109" height="69" rx="3"></rect>
                    <rect id="Rectangle-9" fill="#D1D1D1" opacity="0.401897321" x="53" y="64" width="73" height="4" rx="2"></rect>
                    <circle id="Oval-5" fill="#D1D1D1" opacity="0.4" cx="33" cy="66" r="2"></circle>
                    <circle id="Oval-5" fill="#D1D1D1" opacity="0.4" cx="40" cy="66" r="2"></circle>
                    <circle id="Oval-5" fill="#D1D1D1" opacity="0.4" cx="47" cy="66" r="2"></circle>
                    <path d="M26.5,72.5 L135.5,72.5" id="Line-12" stroke="#5FC9E1" stroke-linecap="square"></path>
                    <g transform="translate(60.000000, 89.000000)" stroke="#5FC9E1" stroke-linecap="round" stroke-linejoin="round">
                        <path d="M27.5,10.5 L38.5,15.5" id="Line-11" transform="translate(33.000000, 13.000000) scale(1, -1) translate(-33.000000, -13.000000) "></path>
                        <path d="M27.5,5.5 L38.5,10.5" id="Line-11"></path>
                        <path d="M0.5,10.5 L11.5,15.5" id="Line-11" transform="translate(6.000000, 13.000000) scale(-1, -1) translate(-6.000000, -13.000000) "></path>
                        <path d="M0.5,5.5 L11.5,10.5" id="Line-11" transform="translate(6.000000, 8.000000) scale(-1, 1) translate(-6.000000, -8.000000) "></path>
                        <path d="M22.5,0.5 L15.5,21.5" id="Line-10"></path>
                    </g>
                </g>
            </g>
        </g>
    </g>
</svg>