<svg xmlns="http://www.w3.org/2000/svg" xmlns:xlink="http://www.w3.org/1999/xlink" width="50" height="50" viewBox="0 0 50 50">
  <defs>
    <clipPath id="clip-path">
      <rect id="Rectangle_863" data-name="Rectangle 863" width="50" height="50" transform="translate(702 101)" fill="#fff"/>
    </clipPath>
  </defs>
  <g id="spacing-default" transform="translate(752 151) rotate(180)" clip-path="url(#clip-path)">
    <path id="resize" d="M43.9,39.039V6.859A6.867,6.867,0,0,0,37.039,0H6.859A6.867,6.867,0,0,0,0,6.859v32.18a1.716,1.716,0,1,0,3.43,0V6.859a3.434,3.434,0,0,1,3.43-3.43h30.18a3.434,3.434,0,0,1,3.43,3.43v32.18A1.721,1.721,0,1,0,43.9,39.039Z" transform="translate(704.958 103.958)" fill="#611764"/>
    <path id="resize-2" data-name="resize" d="M43.9,19.039V6.859A6.867,6.867,0,0,0,37.039,0H6.859A6.867,6.867,0,0,0,0,6.859v12.18a1.716,1.716,0,1,0,3.43,0V6.859a3.434,3.434,0,0,1,3.43-3.43h30.18a3.434,3.434,0,0,1,3.43,3.43v12.18A1.721,1.721,0,1,0,43.9,19.039Z" transform="translate(704.958 126.958)" fill="#767676"/>
  </g>
</svg>
