<svg xmlns="http://www.w3.org/2000/svg" xmlns:xlink="http://www.w3.org/1999/xlink" width="50" height="50" viewBox="0 0 50 50">
  <defs>
    <clipPath id="clip-path">
      <rect id="Rectangle_793" data-name="Rectangle 793" width="50" height="50" transform="translate(702 101)" fill="#fff"/>
    </clipPath>
  </defs>
  <g id="ratio" transform="translate(-702 -101)" clip-path="url(#clip-path)">
    <line id="Line_2" data-name="Line 2" y1="17.868" x2="17.868" transform="translate(718.066 117.066)" fill="none" stroke="#742a2a" stroke-linecap="round" stroke-width="4"/>
    <g id="Ellipse_12" data-name="Ellipse 12" transform="translate(716 115)" fill="none" stroke="#742a2a" stroke-width="3">
      <circle cx="4" cy="4" r="4" stroke="none"/>
      <circle cx="4" cy="4" r="2.5" fill="none"/>
    </g>
    <g id="Ellipse_13" data-name="Ellipse 13" transform="translate(730 129)" fill="none" stroke="#742a2a" stroke-width="3">
      <circle cx="4" cy="4" r="4" stroke="none"/>
      <circle cx="4" cy="4" r="2.5" fill="none"/>
    </g>
    <path id="resize" d="M42.184,30.18A1.715,1.715,0,0,0,43.9,28.465V6.859A6.867,6.867,0,0,0,37.039,0H6.859A6.867,6.867,0,0,0,0,6.859v30.18A6.867,6.867,0,0,0,6.859,43.9h30.18A6.867,6.867,0,0,0,43.9,37.039a1.715,1.715,0,1,0-3.43,0,3.434,3.434,0,0,1-3.43,3.43H6.859a3.434,3.434,0,0,1-3.43-3.43V6.859a3.434,3.434,0,0,1,3.43-3.43h30.18a3.434,3.434,0,0,1,3.43,3.43V28.465A1.715,1.715,0,0,0,42.184,30.18Zm0,0" transform="translate(704.958 103.958)" fill="#b92b2b"/>
  </g>
</svg>
