<svg xmlns="http://www.w3.org/2000/svg" xmlns:xlink="http://www.w3.org/1999/xlink" width="50" height="50" viewBox="0 0 50 50">
  <defs>
    <clipPath id="clip-path">
      <rect id="Rectangle_804" data-name="Rectangle 804" width="50" height="50" transform="translate(702 101)" fill="#fff"/>
    </clipPath>
  </defs>
  <g id="spacing-medium" transform="translate(-702 -101)" clip-path="url(#clip-path)">
    <circle id="Ellipse_17" data-name="Ellipse 17" cx="14" cy="14" r="14" transform="translate(713 112)" fill="#ecdfea"/>
    <text id="_" data-name="++" transform="translate(727 131)" fill="#4a0e4d" font-size="17" font-family="Museo900-Regular, 'Museo 900'" opacity="0.85"><tspan x="-10.71" y="0">++</tspan></text>
    <path id="resize" d="M43.9-.138v4.18A6.867,6.867,0,0,1,37.039,10.9H6.859A6.867,6.867,0,0,1,0,4.042V-.138a1.716,1.716,0,1,1,3.43,0v4.18a3.434,3.434,0,0,0,3.43,3.43h30.18a3.434,3.434,0,0,0,3.43-3.43V-.138A1.721,1.721,0,1,1,43.9-.138Z" transform="translate(704.958 105.958)" fill="#611764"/>
    <path id="resize-2" data-name="resize" d="M43.9,9.039V4.859A6.867,6.867,0,0,0,37.039-2H6.859A6.867,6.867,0,0,0,0,4.859v4.18a1.716,1.716,0,1,0,3.43,0V4.859a3.434,3.434,0,0,1,3.43-3.43h30.18a3.434,3.434,0,0,1,3.43,3.43v4.18A1.721,1.721,0,1,0,43.9,9.039Z" transform="translate(704.958 137.958)" fill="#611764"/>
  </g>
</svg>
