<svg xmlns="http://www.w3.org/2000/svg" xmlns:xlink="http://www.w3.org/1999/xlink" width="50" height="50" viewBox="0 0 50 50">
  <defs>
    <clipPath id="clip-path">
      <rect id="Rectangle_828" data-name="Rectangle 828" width="50" height="50" transform="translate(702 101)" fill="none"/>
    </clipPath>
  </defs>
  <g id="width-small" transform="translate(-702 -101)" clip-path="url(#clip-path)">
    <path id="Path_137" data-name="Path 137" d="M.042,0H.007S0,2.21,0,4.936V32.906c0,2.726,0,4.936.007,4.936H.042s.007-2.21.007-4.936V4.936C.049,2.21.046,0,.042,0Z" transform="translate(740.018 105.725)" fill="none" stroke="#b2b2b2" stroke-linecap="round" stroke-width="3" stroke-dasharray="4 5"/>
    <path id="Path_138" data-name="Path 138" d="M.042,0H.007S0,2.21,0,4.936V32.906c0,2.726,0,4.936.007,4.936H.042s.007-2.21.007-4.936V4.936C.049,2.21.046,0,.042,0Z" transform="translate(714.018 105.725)" fill="none" stroke="#b2b2b2" stroke-linecap="round" stroke-width="3" stroke-dasharray="4 5"/>
    <path id="Path_139" data-name="Path 139" d="M5.669,0H34.96a5.8,5.8,0,0,1,5.669,5.921V35.029A5.8,5.8,0,0,1,34.96,40.95H5.669A5.8,5.8,0,0,1,0,35.029V5.921A5.8,5.8,0,0,1,5.669,0Z" transform="translate(706.613 105.725)" fill="none" stroke="#ababab" stroke-linecap="round" stroke-width="3" stroke-dasharray="4 0"/>
    <rect id="Rectangle_829" data-name="Rectangle 829" width="14" height="22" rx="3" transform="translate(720 115)" fill="#d92828"/>
    <line id="Line_4" data-name="Line 4" x2="3" y2="3" transform="translate(725.5 123.5)" fill="none" stroke="#fff" stroke-linecap="round" stroke-width="3"/>
    <line id="Line_5" data-name="Line 5" x1="3" y2="3" transform="translate(725.5 126.5)" fill="none" stroke="#fff" stroke-linecap="round" stroke-width="3"/>
  </g>
</svg>
