<svg xmlns="http://www.w3.org/2000/svg" width="27" height="36" viewBox="0 0 27 36">
  <path id="spreadsheet" d="M25.313,36H1.687A1.689,1.689,0,0,1,0,34.313V1.688A1.689,1.689,0,0,1,1.687,0H15.75V9.563a1.689,1.689,0,0,0,1.688,1.688H27V34.313A1.689,1.689,0,0,1,25.313,36ZM14,27h2v4a1,1,0,1,0,2,0V27h1.406a.845.845,0,0,0,.844-.844v-.562a.845.845,0,0,0-.844-.843H18V22.5h1.406a.845.845,0,0,0,.844-.844v-.562a.845.845,0,0,0-.844-.843H18V18h1.406a.845.845,0,0,0,.844-.844v-.562a.845.845,0,0,0-.844-.843H14V12a1,1,0,0,0-2,0v3.75H10V12a1,1,0,1,0-2,0v3.75H7.593a.844.844,0,0,0-.843.843v.563A.845.845,0,0,0,7.593,18H8v2.25H7.593a.844.844,0,0,0-.843.843v.563a.845.845,0,0,0,.843.844H8v2.25H7.593a.844.844,0,0,0-.843.843v.563A.845.845,0,0,0,7.593,27H8v4a1,1,0,1,0,2,0V27h2v4a1,1,0,1,0,2,0V27Zm2-2.25H14V22.5h2v2.249Zm-4,0H10V22.5h2v2.249Zm4-4.5H14V18h2v2.249Zm-4,0H10V18h2v2.249ZM27,9H18V0h.429a1.678,1.678,0,0,1,1.2.492l6.883,6.89A1.692,1.692,0,0,1,27,8.571V9Z" fill="#6e844a"/>
</svg>
